{
    "name" : "Golden Star",
    "description" : "Our mission is to be the most sustainable restaurant in New York by sourcing our ingredients locally, supplementing produce with herbs grown on our rooftop garden, and giving back to the community through urban farming education.Our mission is to give our customers a place to celebrate life’s special moments by offering the best food, service, and ambiance in Toronto.",
    "image": "/assets/image/resturant1.jpg",
    "rating" : 3,
    "reviews":[
        {"author" : "Zainab Salami",
            "review" : "Friendly and service minded staff and excellent food. Best sushi in town!",
            "rating" : 5
        },
        {"author" : "rasha othman",
            "review" : "Snaaaaaaaaaaaaaall but the sound of music is heigh and nousy .",
            "rating" : 3
        },
        {"author" : "Anders Persson",
            "review" : "Great sushi really enjoyd the service and also the thai food. would recommend to visit",
            "rating" : 3
        }
    ]
}
